<?xml version="1.0" encoding="utf-8"?>
<!-- Generator: Adobe Illustrator 16.0.0, SVG Export Plug-In . SVG Version: 6.00 Build 0)  -->
<!DOCTYPE svg PUBLIC "-//W3C//DTD SVG 1.1//EN" "http://www.w3.org/Graphics/SVG/1.1/DTD/svg11.dtd">
<svg version="1.1" id="Layer_1" xmlns="http://www.w3.org/2000/svg" xmlns:xlink="http://www.w3.org/1999/xlink" x="0px" y="0px"
	 width="108.667px" height="108.667px" viewBox="0 0 108.667 108.667" enable-background="new 0 0 108.667 108.667"
	 xml:space="preserve">
<g>
	<path fill="#010101" d="M101.2,57.307c0-2.017-1.002-3.801-2.537-4.881c1.234-1.095,2.018-2.688,2.018-4.467
		c0-2.656-1.729-4.901-4.123-5.678c0.789-1.015,1.27-2.287,1.27-3.674c0-2.993-2.207-5.469-5.083-5.899
		c0.258-0.668,0.409-1.392,0.409-2.152c0-3.299-2.678-5.974-5.978-5.974c-0.116,0-0.229,0.011-0.349,0.017
		c0.139-0.504,0.219-1.029,0.219-1.574c0-3.301-2.676-5.974-5.976-5.974c-0.832,0-1.626,0.171-2.349,0.477
		c0.002-0.072,0.012-0.143,0.012-0.218c0-3.301-2.677-5.974-5.971-5.974c-1.484,0-2.838,0.544-3.883,1.438
		c-0.54-2.747-2.961-4.816-5.859-4.816c-1.955,0-3.686,0.942-4.774,2.394c-0.833-2.302-3.025-3.953-5.615-3.953
		c-2.278,0-4.257,1.275-5.267,3.149c-0.948-1.112-2.302-1.882-3.87-2.057c-2.929-0.327-5.594,1.525-6.392,4.257
		c-0.702-0.412-1.497-0.691-2.358-0.785c-3.277-0.366-6.236,1.996-6.599,5.278c-0.02,0.191-0.028,0.387-0.032,0.578
		c-0.262-0.065-0.526-0.119-0.799-0.15c-3.277-0.361-6.231,2.001-6.599,5.278c-0.058,0.539-0.037,1.065,0.039,1.574
		c-3.261-0.336-6.186,2.019-6.552,5.283c-0.121,1.107,0.072,2.179,0.505,3.126c-2.632,0.374-4.783,2.481-5.094,5.249
		c-0.176,1.612,0.307,3.144,1.23,4.331c-2.163,0.703-3.832,2.61-4.097,5.018c-0.221,2.007,0.581,3.891,1.985,5.135
		c-1.35,0.951-2.304,2.449-2.501,4.216c-0.294,2.64,1.181,5.064,3.472,6.101c-0.9,0.918-1.514,2.132-1.664,3.512
		c-0.333,2.975,1.588,5.677,4.399,6.424c-0.333,0.635-0.558,1.339-0.643,2.096c-0.363,3.277,2,6.23,5.278,6.595
		c0.114,0.014,0.226,0.016,0.345,0.022c-0.194,0.486-0.333,0.999-0.39,1.541c-0.363,3.279,1.999,6.23,5.277,6.596
		c0.833,0.094,1.64,0.012,2.392-0.216c-0.014,0.071-0.03,0.144-0.034,0.216c-0.367,3.283,1.998,6.235,5.274,6.6
		c1.471,0.162,2.88-0.229,4.019-0.999c0.23,2.786,2.402,5.11,5.291,5.433c1.941,0.213,3.766-0.531,5.01-1.853
		c0.566,2.38,2.567,4.26,5.145,4.548c2.247,0.248,4.348-0.789,5.558-2.52c1.098,1.381,2.784,2.268,4.686,2.268
		c2.432,0,4.515-1.449,5.448-3.531c1.05,0.905,2.407,1.458,3.904,1.458c2.941,0,5.384-2.135,5.874-4.937
		c0.746,0.329,1.568,0.519,2.436,0.519c3.298,0,5.971-2.673,5.971-5.976c0-0.193-0.008-0.387-0.025-0.578
		c0.266,0.036,0.535,0.061,0.809,0.061c3.299,0,5.975-2.673,5.975-5.975c0-0.541-0.079-1.062-0.214-1.557
		c3.278-0.028,5.931-2.691,5.931-5.977c0-1.113-0.312-2.155-0.851-3.051c2.577-0.664,4.481-2.994,4.481-5.778
		c0-1.622-0.646-3.093-1.697-4.169C99.759,61.811,101.2,59.731,101.2,57.307z"/>
	<path fill="#FFFFFF" d="M67.142,34.026v18.922h-9.534V33.722h-4.555L26.837,72.503h7.42l9.084-13.499h8.208v13.499h6.058V59.004
		h9.534v13.578h6.057V34.026H67.142z M47.417,52.948l4.133-6.143v6.143H47.417z"/>
	<polygon fill="#E8168C" points="47.4,52.956 51.55,46.813 51.55,52.956 	"/>
</g>
</svg>
