<?xml version="1.0" encoding="UTF-8"?>
<svg width="60px" height="61px" viewBox="0 0 60 61" version="1.1" xmlns="http://www.w3.org/2000/svg" xmlns:xlink="http://www.w3.org/1999/xlink">
    <!-- Generator: Sketch 48.1 (47250) - http://www.bohemiancoding.com/sketch -->
    <title>Page 1</title>
    <desc>Created with Sketch.</desc>
    <defs></defs>
    <g id="Page-1" stroke="none" stroke-width="1" fill="none" fill-rule="evenodd">
        <path d="M48.3582861,39.5771294 C47.8874,39.7958636 47.2463874,39.9264965 47.0580329,39.9629522 C46.8939823,39.9994079 46.7208177,39.8930788 46.6691722,39.7259902 C46.5355013,39.267256 46.2711975,38.3437117 46.0555013,38.1340915 C45.854995,38.3892813 45.611957,39.3340915 45.5056279,39.7624459 C45.1380329,41.184218 44.6367671,43.1437117 42.8200582,43.1437117 C41.0246152,43.1437117 40.7025899,41.2753573 40.4899317,40.0328256 C40.1891722,38.3011801 39.9765139,38.1128256 39.605881,38.1128256 C39.3810709,38.1128256 39.2139823,38.1128256 39.0256279,39.7138383 C38.8767671,40.9654839 38.6003114,43.2864965 36.2094253,43.2864965 C33.7790456,43.2864965 33.5238557,40.9837117 33.368919,39.6075092 C33.2382861,38.3619396 33.1228431,38.1128256 32.9922101,38.1128256 C32.7522101,38.1128256 32.6124633,38.5685218 32.4544886,39.8444712 C32.293476,41.1568763 32.0474,43.1437117 30.1365139,43.1437117 C28.3167671,43.1437117 27.9765139,41.314851 27.724362,39.987256 C27.4175266,38.3619396 27.2291722,37.9639649 26.7430962,37.9639649 C26.3542355,37.9639649 26.1385393,38.1644712 25.8711975,40.0176358 C25.6737291,41.314851 25.3851215,43.2864965 23.531957,43.2864965 C21.6757544,43.2864965 21.3780329,41.3816864 21.1562608,39.993332 C20.8798051,38.2586484 20.6732228,37.9639649 20.3147418,37.9639649 C20.0230962,37.9639649 19.8651215,38.1401674 19.6737291,39.7654839 C19.5187924,41.0778889 19.2605646,43.2864965 17.0944886,43.2864965 C14.9223367,43.2864965 14.6367671,41.1325725 14.4484127,39.7077623 C14.2479063,38.2373826 14.1051215,37.9639649 13.8833494,37.9639649 C13.7375266,37.9639649 13.4033494,37.9639649 13.0752481,39.507256 C13.0539823,39.6135851 12.971957,39.7016864 12.8686658,39.744218 C12.7623367,39.7837117 12.6468937,39.7715598 12.5527165,39.7138383 L11.4286658,38.9421927 C11.3071469,38.8601674 11.2555013,38.7113066 11.285881,38.5745978 C11.7233494,36.8763699 12.5982861,36.0166231 13.8833494,36.0166231 C15.9187924,36.0166231 16.1982861,38.0824459 16.3836026,39.4464965 C16.5962608,41.071813 16.7724633,41.3330788 17.0944886,41.3330788 C17.3891722,41.3330788 17.5441089,41.1568763 17.7355013,39.5406737 C17.9025899,38.1340915 18.1517038,36.0166231 20.3147418,36.0166231 C22.4929696,36.0166231 22.8514507,38.2191547 23.0823367,39.6713066 C23.2463874,40.7285218 23.3891722,41.2814332 23.5198051,41.3330788 C23.7111975,41.2328256 23.8813241,40.0996611 23.9360076,39.7320661 C24.1547418,38.2495345 24.488919,36.0166231 26.7430962,36.0166231 C28.9608177,36.0166231 29.3709443,38.1766231 29.6382861,39.6075092 C29.7172734,40.0449775 29.9360076,41.190294 30.1365139,41.190294 C30.2610709,41.190294 30.3917038,40.6556104 30.5223367,39.6075092 C30.6803114,38.3194079 30.9446152,36.1594079 32.9922101,36.1594079 C34.9608177,36.1594079 35.1795519,38.1826991 35.3101848,39.388775 C35.5076532,41.1659902 35.7111975,41.3330788 36.2094253,41.3330788 C36.6651215,41.3330788 36.8747418,41.2632054 37.084362,39.4829522 C37.2332228,38.2373826 37.4853747,36.1594079 39.605881,36.1594079 C41.7901848,36.1594079 42.1608177,38.2829522 42.4129696,39.6956104 C42.4737291,40.0449775 42.6499317,41.0900408 42.8291722,41.190294 C43.1208177,41.190294 43.4701848,39.8505472 43.6129696,39.2794079 C43.9744886,37.8910535 44.411957,36.1594079 46.0311975,36.1594079 C47.6625899,36.1594079 48.1517038,37.833332 48.5436026,39.1730788 C48.5891722,39.3401674 48.5132228,39.513332 48.3582861,39.5771294 M16.2225899,21.3675092 C17.2767671,20.0368763 18.8686658,19.3867497 20.4453747,19.4626991 C20.6944886,20.4226991 21.2352481,21.3006737 22.0555013,21.9538383 L22.2286658,22.0966231 C23.0580329,22.7558636 24.0423367,23.068775 25.0205646,23.0930788 C25.4671469,24.6059902 25.1937291,26.310294 24.1365139,27.6378889 C22.4079063,29.8282687 19.2271469,30.1958636 17.045881,28.464218 C14.8646152,26.7295345 14.4909443,23.551813 16.2225899,21.3675092 M34.9790456,23.0930788 C35.9633494,23.068775 36.9415772,22.7558636 37.7679063,22.0966231 L37.9471469,21.9538383 C38.770438,21.3006737 39.3081595,20.4226991 39.5542355,19.4626991 C41.1309443,19.3867497 42.725881,20.0368763 43.7770203,21.3675092 C45.5117038,23.551813 45.1410709,26.7295345 42.9598051,28.464218 C40.7694253,30.1958636 37.5947418,29.8282687 35.8691722,27.6378889 C34.805881,26.310294 34.5385393,24.6059902 34.9790456,23.0930788 M59.9998051,32.1553573 C59.9998051,30.8794079 59.3679063,29.7523193 58.3987924,29.068775 C59.1825899,28.3730788 59.6747418,27.3705472 59.6747418,26.2495345 C59.6747418,24.5725725 58.5810709,23.1538383 57.0681595,22.6616864 C57.5724633,22.0206737 57.8701848,21.2186484 57.8701848,20.3406737 C57.8701848,18.4480155 56.4757544,16.8864965 54.6590456,16.6130788 C54.8261342,16.1938383 54.9203114,15.7351041 54.9203114,15.2551041 C54.9203114,13.1740915 53.2311975,11.4819396 51.1441089,11.4819396 C51.0711975,11.4819396 50.9982861,11.4940915 50.9284127,11.4940915 C51.013476,11.1720661 51.0651215,10.8470028 51.0651215,10.5037117 C51.0651215,8.41358513 49.3729696,6.7244712 47.288919,6.7244712 C46.7633494,6.7244712 46.2590456,6.83080032 45.8033494,7.0252307 C45.8063874,6.98269905 45.8124633,6.93712943 45.8124633,6.88852184 C45.8124633,4.80750918 44.1203114,3.11535728 42.0392988,3.11535728 C41.1066405,3.11535728 40.2499317,3.45864842 39.5876532,4.02371171 C39.250438,2.29206614 37.7192988,0.985737027 35.890438,0.985737027 C34.6539823,0.985737027 33.5603114,1.57814209 32.8706912,2.49864842 C32.3481595,1.04345855 30.9598051,0.00143322946 29.3253747,0.00143322946 C27.8884127,0.00143322946 26.6398051,0.806496521 26.0018304,1.98826867 C25.4003114,1.28649652 24.5466405,0.800420571 23.5592988,0.688015508 C21.7091722,0.481433229 20.0291722,1.65712943 19.5187924,3.38269905 C19.0752481,3.11535728 18.5739823,2.94219272 18.0332228,2.8844712 C15.9613241,2.65358513 14.0929696,4.14219272 13.8651215,6.21409146 C13.8499317,6.33864842 13.8468937,6.46320538 13.8438557,6.58168639 C13.6767671,6.53915475 13.5127165,6.50269905 13.3395519,6.4844712 C11.2676532,6.25358513 9.4053747,7.74826867 9.17448863,9.82016741 C9.13499496,10.1573826 9.14714685,10.4915598 9.19879242,10.8105472 C7.13904559,10.6039649 5.28588103,12.0864965 5.05803293,14.1462434 C4.98208356,14.8510535 5.10664052,15.5285218 5.37702027,16.1270028 C3.71524812,16.3578889 2.35423546,17.6885218 2.15980508,19.4383953 C2.04740002,20.4530788 2.34815951,21.4252307 2.9375266,22.1725725 C1.57347597,22.6191547 0.516260778,23.8221927 0.349172171,25.3411801 C0.20638736,26.6110535 0.713729133,27.7989016 1.60081774,28.588775 C0.747146854,29.187256 0.148665841,30.1320661 0.0241088794,31.2530788 C-0.164245551,32.9209269 0.768412677,34.4459902 2.21448863,35.1021927 C1.64942534,35.6794079 1.26056458,36.4449775 1.16334939,37.3168763 C0.953729133,39.1973826 2.16588103,40.9047244 3.94309622,41.3816864 C3.73651394,41.7796611 3.59069116,42.2232054 3.53600761,42.6971294 C3.31119749,44.7690282 4.79980508,46.6313066 6.86866584,46.8621927 C6.94461521,46.8743446 7.02056458,46.8743446 7.09347597,46.8804206 C6.96588103,47.184218 6.88385571,47.5092813 6.84132407,47.8495345 C6.61347597,49.9244712 8.10512154,51.7897877 10.1770203,52.0145978 C10.6995519,52.0783953 11.2099317,52.0267497 11.6838557,51.8778889 C11.6777798,51.9234585 11.6656279,51.9720661 11.6595519,52.0145978 C11.4317038,54.0895345 12.9233494,55.9609269 14.9952481,56.185737 C15.9248684,56.2859902 16.814995,56.0429522 17.531957,55.5508003 C17.6747418,57.3128256 19.0509443,58.7832054 20.8737291,58.9867497 C22.0980329,59.1234585 23.2494253,58.6464965 24.0362608,57.8171294 C24.3977798,59.3178889 25.6555013,60.505737 27.2868937,60.6880155 C28.7056279,60.8490282 30.0362608,60.1897877 30.7957544,59.0991547 C31.4884127,59.9710535 32.5517038,60.5270028 33.7577798,60.5270028 C35.291957,60.5270028 36.6074,59.6156104 37.1967671,58.2971294 C37.8620836,58.8682687 38.7157544,59.2176358 39.6666405,59.2176358 C41.5228431,59.2176358 43.0630962,57.868775 43.3729696,56.1006737 C43.8438557,56.310294 44.3663874,56.428775 44.9101848,56.428775 C46.9942355,56.428775 48.6833494,54.7426991 48.6833494,52.6556104 C48.6833494,52.5371294 48.6772734,52.4125725 48.6681595,52.2940915 C48.8322101,52.3092813 49.0023367,52.3275092 49.1785393,52.3275092 C51.2595519,52.3275092 52.9517038,50.6444712 52.9517038,48.5543446 C52.9517038,48.2171294 52.9000582,47.8829522 52.814995,47.5700408 C54.8838557,47.5578889 56.5577798,45.871813 56.5577798,43.8029522 C56.5577798,43.0951041 56.3633494,42.4358636 56.0230962,41.8738383 C57.6514507,41.4515598 58.8544886,39.9811801 58.8544886,38.2252307 C58.8544886,37.1983953 58.444362,36.265737 57.7820836,35.5913066 C59.0914507,34.9958636 59.9998051,33.6804206 59.9998051,32.1553573" fill="#F8EC31"></path>
    </g>
</svg>