<?xml version="1.0" encoding="utf-8"?>
<!-- Generator: Adobe Illustrator 16.0.0, SVG Export Plug-In . SVG Version: 6.00 Build 0)  -->
<!DOCTYPE svg PUBLIC "-//W3C//DTD SVG 1.1//EN" "http://www.w3.org/Graphics/SVG/1.1/DTD/svg11.dtd">
<svg version="1.1" id="Layer_1" xmlns="http://www.w3.org/2000/svg" xmlns:xlink="http://www.w3.org/1999/xlink" x="0px" y="0px"
	 width="35px" height="33.833px" viewBox="0 0 35 33.833" enable-background="new 0 0 35 33.833" xml:space="preserve">
<g>
	<path fill="#FBED26" d="M32.742,17.819c0-0.633-0.314-1.191-0.795-1.531c0.387-0.344,0.633-0.844,0.633-1.403
		c0-0.834-0.543-1.538-1.295-1.782c0.248-0.318,0.398-0.718,0.398-1.153c0-0.94-0.691-1.716-1.595-1.852
		c0.08-0.21,0.127-0.437,0.127-0.676c0-1.036-0.84-1.875-1.875-1.875c-0.036,0-0.071,0.003-0.108,0.005
		C28.275,7.396,28.3,7.23,28.3,7.06c0-1.036-0.84-1.875-1.875-1.875c-0.262,0-0.512,0.054-0.737,0.149
		c0.002-0.022,0.004-0.044,0.004-0.068c0-1.036-0.84-1.875-1.873-1.875c-0.467,0-0.894,0.171-1.221,0.452
		c-0.168-0.862-0.929-1.511-1.839-1.511c-0.612,0-1.155,0.295-1.497,0.75C19,2.36,18.312,1.841,17.498,1.841
		c-0.715,0-1.336,0.4-1.652,0.989c-0.297-0.348-0.723-0.591-1.215-0.645c-0.918-0.104-1.756,0.479-2.006,1.335
		c-0.221-0.129-0.469-0.217-0.74-0.247C10.855,3.159,9.927,3.9,9.814,4.931c-0.006,0.06-0.01,0.12-0.01,0.18
		C9.72,5.091,9.638,5.075,9.552,5.064c-1.029-0.113-1.955,0.628-2.07,1.657c-0.02,0.17-0.012,0.335,0.012,0.494
		C6.47,7.11,5.552,7.849,5.437,8.874C5.4,9.221,5.46,9.557,5.595,9.854c-0.826,0.118-1.502,0.779-1.598,1.647
		c-0.057,0.505,0.096,0.986,0.385,1.359c-0.678,0.221-1.201,0.82-1.285,1.575c-0.07,0.63,0.182,1.221,0.623,1.611
		c-0.424,0.299-0.723,0.769-0.785,1.324c-0.092,0.828,0.371,1.589,1.09,1.914c-0.283,0.289-0.475,0.67-0.523,1.102
		c-0.104,0.935,0.5,1.783,1.381,2.018c-0.104,0.199-0.174,0.42-0.201,0.657c-0.113,1.028,0.629,1.956,1.656,2.069
		c0.037,0.004,0.072,0.006,0.109,0.009C6.386,25.29,6.342,25.45,6.324,25.62c-0.113,1.03,0.627,1.957,1.656,2.07
		c0.262,0.029,0.516,0.004,0.752-0.066c-0.006,0.021-0.01,0.045-0.012,0.066c-0.115,1.031,0.627,1.957,1.656,2.072
		c0.461,0.051,0.902-0.072,1.26-0.314c0.072,0.875,0.754,1.605,1.662,1.705c0.607,0.066,1.182-0.167,1.572-0.582
		c0.178,0.748,0.805,1.338,1.613,1.43c0.705,0.076,1.365-0.248,1.744-0.791c0.347,0.434,0.875,0.711,1.474,0.711
		c0.762,0,1.416-0.455,1.709-1.107c0.329,0.284,0.756,0.458,1.225,0.458c0.925,0,1.689-0.671,1.845-1.55
		c0.233,0.104,0.492,0.162,0.764,0.162c1.037,0,1.875-0.84,1.875-1.877c0-0.059-0.002-0.118-0.008-0.18
		c0.084,0.01,0.168,0.018,0.254,0.018c1.035,0,1.875-0.838,1.875-1.875c0-0.168-0.025-0.331-0.066-0.487
		c1.027-0.009,1.861-0.844,1.861-1.876c0-0.352-0.1-0.677-0.268-0.958c0.809-0.207,1.405-0.938,1.405-1.812
		c0-0.51-0.203-0.971-0.532-1.31C32.291,19.233,32.742,18.581,32.742,17.819z"/>
	<g enable-background="new    ">
		<path fill="#010101" d="M25.119,11.699v10.834c0,0.512-0.184,0.951-0.551,1.318c-0.366,0.367-0.806,0.549-1.318,0.549H12.417
			c-0.512,0-0.952-0.182-1.318-0.549s-0.55-0.807-0.55-1.318V11.699c0-0.513,0.184-0.952,0.55-1.318
			c0.367-0.367,0.806-0.551,1.318-0.551H23.25c0.513,0,0.952,0.184,1.318,0.551C24.936,10.747,25.119,11.187,25.119,11.699z
			 M23.469,22.143v-6.146h-1.281c0.127,0.398,0.189,0.812,0.189,1.242c0,0.796-0.201,1.533-0.606,2.207
			c-0.405,0.672-0.955,1.205-1.651,1.598c-0.695,0.393-1.454,0.588-2.276,0.588c-1.246,0-2.312-0.428-3.197-1.285
			s-1.328-1.893-1.328-3.107c0-0.43,0.063-0.844,0.19-1.242H12.17v6.146c0,0.166,0.056,0.303,0.166,0.414
			c0.111,0.109,0.248,0.166,0.413,0.166h10.142c0.157,0,0.293-0.057,0.407-0.166C23.412,22.446,23.469,22.309,23.469,22.143z
			 M19.916,19.094c0.572-0.553,0.858-1.223,0.858-2.006c0-0.784-0.286-1.453-0.858-2.007c-0.572-0.553-1.264-0.83-2.073-0.83
			c-0.803,0-1.491,0.277-2.063,0.83c-0.573,0.554-0.858,1.223-0.858,2.007c0,0.784,0.286,1.454,0.858,2.006
			c0.572,0.553,1.26,0.83,2.063,0.83C18.652,19.924,19.344,19.647,19.916,19.094z M23.469,13.673v-1.565
			c0-0.178-0.063-0.331-0.189-0.46c-0.127-0.13-0.281-0.195-0.465-0.195h-1.65c-0.184,0-0.339,0.065-0.465,0.195
			c-0.127,0.129-0.19,0.282-0.19,0.46v1.565c0,0.183,0.063,0.338,0.19,0.465c0.126,0.126,0.281,0.189,0.465,0.189h1.65
			c0.184,0,0.338-0.063,0.465-0.189C23.405,14.011,23.469,13.855,23.469,13.673z"/>
	</g>
</g>
</svg>
